…
## Loading and preprocessing the data
Load data (1):

```r
activity <- read.csv("data/activity.csv") %>% tibble

activity
```

```
## # A tibble: 17,568 × 3
##    steps date       interval
##    <int> <chr>         <int>
##  1    NA 2012-10-01        0
##  2    NA 2012-10-01        5
##  3    NA 2012-10-01       10
##  4    NA 2012-10-01       15
##  5    NA 2012-10-01       20
##  6    NA 2012-10-01       25
##  7    NA 2012-10-01       30
##  8    NA 2012-10-01       35
##  9    NA 2012-10-01       40
## 10    NA 2012-10-01       45
## # … with 17,558 more rows
```
…
## What is mean total number of steps taken per day?
Calculate total steps per day:

```r
daily_total <- activity %>%
    filter(complete.cases(.)) %>% # Remove NAs for now
    group_by(date) %>%
    summarize(steps = sum(steps))

daily_total
```

```
## # A tibble: 53 × 2
##    date       steps
##    <chr>      <int>
##  1 2012-10-02   126
##  2 2012-10-03 11352
##  3 2012-10-04 12116
##  4 2012-10-05 13294
##  5 2012-10-06 15420
##  6 2012-10-07 11015
##  7 2012-10-09 12811
##  8 2012-10-10  9900
##  9 2012-10-11 10304
## 10 2012-10-12 17382
## # … with 43 more rows
```
…
## What is the average daily activity pattern?
Grouping data by 5 minute interval:

```r
by_interval <- activity %>%
    filter(complete.cases(.)) %>%
    group_by(time_interval) %>%
    summarize(avg_steps = mean(steps))

by_interval
```

```
## # A tibble: 288 × 2
##    time_interval avg_steps
##    <times>           <dbl>
##  1 00:00:00         1.72  
##  2 00:05:00         0.340 
##  3 00:10:00         0.132 
##  4 00:15:00         0.151 
##  5 00:20:00         0.0755
##  6 00:25:00         2.09  
##  7 00:30:00         0.528 
##  8 00:35:00         0.868 
##  9 00:40:00         0     
## 10 00:45:00         1.47  
## # … with 278 more rows
```
…
Now to revisit our histogram from before, with the imputed data. First we group and summarize:

```r
daily_total_imp <- activity_imp %>%
    group_by(date) %>%
    summarize(steps = sum(steps))

daily_total_imp
```

```
## # A tibble: 61 × 2
##    date        steps
##    <chr>       <dbl>
##  1 2012-10-01 10766.
##  2 2012-10-02   126 
##  3 2012-10-03 11352 
##  4 2012-10-04 12116 
##  5 2012-10-05 13294 
##  6 2012-10-06 15420 
##  7 2012-10-07 11015 
##  8 2012-10-08 10766.
##  9 2012-10-09 12811 
## 10 2012-10-10  9900 
## # … with 51 more rows
```
…
